Classic Timing Analyzer report for s82_4count
Wed May 10 10:40:24 2017
Quartus II Version 8.1 Build 163 10/28/2008 SJ Full Version


---------------------
; Table of Contents ;
---------------------
  1. Legal Notice
  2. Timing Analyzer Summary
  3. Timing Analyzer Settings
  4. Clock Settings Summary
  5. Clock Setup: 'clk'
  6. tsu
  7. tco
  8. tpd
  9. th
 10. Timing Analyzer Messages



----------------
; Legal Notice ;
----------------
Copyright (C) 1991-2008 Altera Corporation
Your use of Altera Corporation's design tools, logic functions 
and other software and tools, and its AMPP partner logic 
functions, and any output files from any of the foregoing 
(including device programming or simulation files), and any 
associated documentation or information are expressly subject 
to the terms and conditions of the Altera Program License 
Subscription Agreement, Altera MegaCore Function License 
Agreement, or other applicable license agreement, including, 
without limitation, that your use is for the sole purpose of 
programming logic devices manufactured by Altera and sold by 
Altera or its authorized distributors.  Please refer to the 
applicable agreement for further details.



+------------------------------------------------------------------------------------------------------------------------------------------------------------------+
; Timing Analyzer Summary                                                                                                                                          ;
+------------------------------+-------+---------------+----------------------------------+----------------+----------------+------------+----------+--------------+
; Type                         ; Slack ; Required Time ; Actual Time                      ; From           ; To             ; From Clock ; To Clock ; Failed Paths ;
+------------------------------+-------+---------------+----------------------------------+----------------+----------------+------------+----------+--------------+
; Worst-case tsu               ; N/A   ; None          ; 2.659 ns                         ; dnup           ; 4count:inst|44 ; --         ; clk      ; 0            ;
; Worst-case tco               ; N/A   ; None          ; 7.551 ns                         ; 4count:inst|45 ; cout           ; clk        ; --       ; 0            ;
; Worst-case tpd               ; N/A   ; None          ; 6.545 ns                         ; dnup           ; cout           ; --         ; --       ; 0            ;
; Worst-case th                ; N/A   ; None          ; -0.786 ns                        ; ldn            ; 4count:inst|45 ; --         ; clk      ; 0            ;
; Clock Setup: 'clk'           ; N/A   ; None          ; 272.85 MHz ( period = 3.665 ns ) ; 4count:inst|45 ; 4count:inst|44 ; clk        ; clk      ; 0            ;
; Total number of failed paths ;       ;               ;                                  ;                ;                ;            ;          ; 0            ;
+------------------------------+-------+---------------+----------------------------------+----------------+----------------+------------+----------+--------------+


+--------------------------------------------------------------------------------------------------------------------+
; Timing Analyzer Settings                                                                                           ;
+---------------------------------------------------------------------+--------------------+------+----+-------------+
; Option                                                              ; Setting            ; From ; To ; Entity Name ;
+---------------------------------------------------------------------+--------------------+------+----+-------------+
; Device Name                                                         ; EPM240T100C3       ;      ;    ;             ;
; Timing Models                                                       ; Final              ;      ;    ;             ;
; Default hold multicycle                                             ; Same as Multicycle ;      ;    ;             ;
; Cut paths between unrelated clock domains                           ; On                 ;      ;    ;             ;
; Cut off read during write signal paths                              ; On                 ;      ;    ;             ;
; Cut off feedback from I/O pins                                      ; On                 ;      ;    ;             ;
; Report Combined Fast/Slow Timing                                    ; Off                ;      ;    ;             ;
; Ignore Clock Settings                                               ; Off                ;      ;    ;             ;
; Analyze latches as synchronous elements                             ; On                 ;      ;    ;             ;
; Enable Recovery/Removal analysis                                    ; Off                ;      ;    ;             ;
; Enable Clock Latency                                                ; Off                ;      ;    ;             ;
; Use TimeQuest Timing Analyzer                                       ; Off                ;      ;    ;             ;
; Number of source nodes to report per destination node               ; 10                 ;      ;    ;             ;
; Number of destination nodes to report                               ; 10                 ;      ;    ;             ;
; Number of paths to report                                           ; 200                ;      ;    ;             ;
; Report Minimum Timing Checks                                        ; Off                ;      ;    ;             ;
; Use Fast Timing Models                                              ; Off                ;      ;    ;             ;
; Report IO Paths Separately                                          ; Off                ;      ;    ;             ;
; Perform Multicorner Analysis                                        ; Off                ;      ;    ;             ;
; Reports the worst-case path for each clock domain and analysis      ; Off                ;      ;    ;             ;
; Removes common clock path pessimism (CCPP) during slack computation ; Off                ;      ;    ;             ;
; Output I/O Timing Endpoint                                          ; Near End           ;      ;    ;             ;
+---------------------------------------------------------------------+--------------------+------+----+-------------+


+------------------------------------------------------------------------------------------------------------------------------------------------------------------------------------+
; Clock Settings Summary                                                                                                                                                             ;
+-----------------+--------------------+----------+------------------+---------------+--------------+----------+-----------------------+---------------------+--------+--------------+
; Clock Node Name ; Clock Setting Name ; Type     ; Fmax Requirement ; Early Latency ; Late Latency ; Based on ; Multiply Base Fmax by ; Divide Base Fmax by ; Offset ; Phase offset ;
+-----------------+--------------------+----------+------------------+---------------+--------------+----------+-----------------------+---------------------+--------+--------------+
; clk             ;                    ; User Pin ; None             ; 0.000 ns      ; 0.000 ns     ; --       ; N/A                   ; N/A                 ; N/A    ;              ;
+-----------------+--------------------+----------+------------------+---------------+--------------+----------+-----------------------+---------------------+--------+--------------+


+------------------------------------------------------------------------------------------------------------------------------------------------------------------------------------------------------+
; Clock Setup: 'clk'                                                                                                                                                                                   ;
+-------+------------------------------------------------+----------------+----------------+------------+----------+-----------------------------+---------------------------+-------------------------+
; Slack ; Actual fmax (period)                           ; From           ; To             ; From Clock ; To Clock ; Required Setup Relationship ; Required Longest P2P Time ; Actual Longest P2P Time ;
+-------+------------------------------------------------+----------------+----------------+------------+----------+-----------------------------+---------------------------+-------------------------+
; N/A   ; 272.85 MHz ( period = 3.665 ns )               ; 4count:inst|45 ; 4count:inst|44 ; clk        ; clk      ; None                        ; None                      ; 3.222 ns                ;
; N/A   ; 286.53 MHz ( period = 3.490 ns )               ; 4count:inst|46 ; 4count:inst|44 ; clk        ; clk      ; None                        ; None                      ; 3.047 ns                ;
; N/A   ; Restricted to 304.04 MHz ( period = 3.289 ns ) ; 4count:inst|45 ; 4count:inst|43 ; clk        ; clk      ; None                        ; None                      ; 2.477 ns                ;
; N/A   ; Restricted to 304.04 MHz ( period = 3.289 ns ) ; 4count:inst|46 ; 4count:inst|43 ; clk        ; clk      ; None                        ; None                      ; 2.317 ns                ;
; N/A   ; Restricted to 304.04 MHz ( period = 3.289 ns ) ; 4count:inst|44 ; 4count:inst|43 ; clk        ; clk      ; None                        ; None                      ; 2.093 ns                ;
; N/A   ; Restricted to 304.04 MHz ( period = 3.289 ns ) ; 4count:inst|46 ; 4count:inst|45 ; clk        ; clk      ; None                        ; None                      ; 1.958 ns                ;
; N/A   ; Restricted to 304.04 MHz ( period = 3.289 ns ) ; 4count:inst|44 ; 4count:inst|44 ; clk        ; clk      ; None                        ; None                      ; 1.336 ns                ;
; N/A   ; Restricted to 304.04 MHz ( period = 3.289 ns ) ; 4count:inst|43 ; 4count:inst|43 ; clk        ; clk      ; None                        ; None                      ; 1.237 ns                ;
; N/A   ; Restricted to 304.04 MHz ( period = 3.289 ns ) ; 4count:inst|46 ; 4count:inst|46 ; clk        ; clk      ; None                        ; None                      ; 1.221 ns                ;
; N/A   ; Restricted to 304.04 MHz ( period = 3.289 ns ) ; 4count:inst|45 ; 4count:inst|45 ; clk        ; clk      ; None                        ; None                      ; 1.220 ns                ;
+-------+------------------------------------------------+----------------+----------------+------------+----------+-----------------------------+---------------------------+-------------------------+


+----------------------------------------------------------------------+
; tsu                                                                  ;
+-------+--------------+------------+------+----------------+----------+
; Slack ; Required tsu ; Actual tsu ; From ; To             ; To Clock ;
+-------+--------------+------------+------+----------------+----------+
; N/A   ; None         ; 2.659 ns   ; dnup ; 4count:inst|44 ; clk      ;
; N/A   ; None         ; 2.034 ns   ; dnup ; 4count:inst|43 ; clk      ;
; N/A   ; None         ; 1.618 ns   ; cin  ; 4count:inst|43 ; clk      ;
; N/A   ; None         ; 1.617 ns   ; cin  ; 4count:inst|44 ; clk      ;
; N/A   ; None         ; 1.591 ns   ; d    ; 4count:inst|43 ; clk      ;
; N/A   ; None         ; 1.545 ns   ; ldn  ; 4count:inst|43 ; clk      ;
; N/A   ; None         ; 1.531 ns   ; ldn  ; 4count:inst|44 ; clk      ;
; N/A   ; None         ; 1.524 ns   ; ldn  ; 4count:inst|45 ; clk      ;
; N/A   ; None         ; 1.429 ns   ; cin  ; 4count:inst|45 ; clk      ;
; N/A   ; None         ; 1.413 ns   ; c    ; 4count:inst|44 ; clk      ;
; N/A   ; None         ; 1.376 ns   ; dnup ; 4count:inst|45 ; clk      ;
; N/A   ; None         ; 1.337 ns   ; a    ; 4count:inst|46 ; clk      ;
; N/A   ; None         ; 1.317 ns   ; b    ; 4count:inst|45 ; clk      ;
; N/A   ; None         ; 1.251 ns   ; cin  ; 4count:inst|46 ; clk      ;
; N/A   ; None         ; 1.137 ns   ; ldn  ; 4count:inst|46 ; clk      ;
+-------+--------------+------------+------+----------------+----------+


+------------------------------------------------------------------------+
; tco                                                                    ;
+-------+--------------+------------+----------------+------+------------+
; Slack ; Required tco ; Actual tco ; From           ; To   ; From Clock ;
+-------+--------------+------------+----------------+------+------------+
; N/A   ; None         ; 7.551 ns   ; 4count:inst|45 ; cout ; clk        ;
; N/A   ; None         ; 7.376 ns   ; 4count:inst|46 ; cout ; clk        ;
; N/A   ; None         ; 6.553 ns   ; 4count:inst|44 ; cout ; clk        ;
; N/A   ; None         ; 6.423 ns   ; 4count:inst|43 ; cout ; clk        ;
; N/A   ; None         ; 5.927 ns   ; 4count:inst|45 ; qb   ; clk        ;
; N/A   ; None         ; 5.773 ns   ; 4count:inst|44 ; qc   ; clk        ;
; N/A   ; None         ; 5.454 ns   ; 4count:inst|43 ; qd   ; clk        ;
; N/A   ; None         ; 5.223 ns   ; 4count:inst|46 ; qa   ; clk        ;
+-------+--------------+------------+----------------+------+------------+


+-----------------------------------------------------------+
; tpd                                                       ;
+-------+-------------------+-----------------+------+------+
; Slack ; Required P2P Time ; Actual P2P Time ; From ; To   ;
+-------+-------------------+-----------------+------+------+
; N/A   ; None              ; 6.545 ns        ; dnup ; cout ;
; N/A   ; None              ; 5.677 ns        ; cin  ; cout ;
+-------+-------------------+-----------------+------+------+


+----------------------------------------------------------------------------+
; th                                                                         ;
+---------------+-------------+-----------+------+----------------+----------+
; Minimum Slack ; Required th ; Actual th ; From ; To             ; To Clock ;
+---------------+-------------+-----------+------+----------------+----------+
; N/A           ; None        ; -0.786 ns ; ldn  ; 4count:inst|45 ; clk      ;
; N/A           ; None        ; -0.791 ns ; ldn  ; 4count:inst|46 ; clk      ;
; N/A           ; None        ; -0.806 ns ; ldn  ; 4count:inst|43 ; clk      ;
; N/A           ; None        ; -0.905 ns ; cin  ; 4count:inst|46 ; clk      ;
; N/A           ; None        ; -0.971 ns ; b    ; 4count:inst|45 ; clk      ;
; N/A           ; None        ; -0.990 ns ; ldn  ; 4count:inst|44 ; clk      ;
; N/A           ; None        ; -0.991 ns ; a    ; 4count:inst|46 ; clk      ;
; N/A           ; None        ; -1.030 ns ; dnup ; 4count:inst|45 ; clk      ;
; N/A           ; None        ; -1.067 ns ; c    ; 4count:inst|44 ; clk      ;
; N/A           ; None        ; -1.083 ns ; cin  ; 4count:inst|45 ; clk      ;
; N/A           ; None        ; -1.245 ns ; d    ; 4count:inst|43 ; clk      ;
; N/A           ; None        ; -1.271 ns ; cin  ; 4count:inst|44 ; clk      ;
; N/A           ; None        ; -1.272 ns ; cin  ; 4count:inst|43 ; clk      ;
; N/A           ; None        ; -1.688 ns ; dnup ; 4count:inst|43 ; clk      ;
; N/A           ; None        ; -1.786 ns ; dnup ; 4count:inst|44 ; clk      ;
+---------------+-------------+-----------+------+----------------+----------+


+--------------------------+
; Timing Analyzer Messages ;
+--------------------------+
Info: *******************************************************************
Info: Running Quartus II Classic Timing Analyzer
    Info: Version 8.1 Build 163 10/28/2008 SJ Full Version
    Info: Processing started: Wed May 10 10:40:17 2017
Info: Command: quartus_tan --read_settings_files=off --write_settings_files=off s82_4count -c s82_4count
Info: Parallel compilation is enabled and will use 2 of the 2 processors detected
Info: Started post-fitting delay annotation
Info: Delay annotation completed successfully
Warning: Found pins functioning as undefined clocks and/or memory enables
    Info: Assuming node "clk" is an undefined clock
Info: Clock "clk" has Internal fmax of 272.85 MHz between source register "4count:inst|45" and destination register "4count:inst|44" (period= 3.665 ns)
    Info: + Longest register to register delay is 3.222 ns
        Info: 1: + IC(0.000 ns) + CELL(0.000 ns) = 0.000 ns; Loc. = LC_X5_Y4_N2; Fanout = 5; REG Node = '4count:inst|45'
        Info: 2: + IC(1.218 ns) + CELL(0.125 ns) = 1.343 ns; Loc. = LC_X2_Y4_N5; Fanout = 2; COMB Node = '4count:inst|37~56'
        Info: 3: + IC(1.194 ns) + CELL(0.125 ns) = 2.662 ns; Loc. = LC_X2_Y4_N3; Fanout = 1; COMB Node = '4count:inst|55~73'
        Info: 4: + IC(0.191 ns) + CELL(0.369 ns) = 3.222 ns; Loc. = LC_X2_Y4_N4; Fanout = 4; REG Node = '4count:inst|44'
        Info: Total cell delay = 0.619 ns ( 19.21 % )
        Info: Total interconnect delay = 2.603 ns ( 80.79 % )
    Info: - Smallest clock skew is 0.000 ns
        Info: + Shortest clock path from clock "clk" to destination register is 2.093 ns
            Info: 1: + IC(0.000 ns) + CELL(0.727 ns) = 0.727 ns; Loc. = PIN_14; Fanout = 4; CLK Node = 'clk'
            Info: 2: + IC(0.792 ns) + CELL(0.574 ns) = 2.093 ns; Loc. = LC_X2_Y4_N4; Fanout = 4; REG Node = '4count:inst|44'
            Info: Total cell delay = 1.301 ns ( 62.16 % )
            Info: Total interconnect delay = 0.792 ns ( 37.84 % )
        Info: - Longest clock path from clock "clk" to source register is 2.093 ns
            Info: 1: + IC(0.000 ns) + CELL(0.727 ns) = 0.727 ns; Loc. = PIN_14; Fanout = 4; CLK Node = 'clk'
            Info: 2: + IC(0.792 ns) + CELL(0.574 ns) = 2.093 ns; Loc. = LC_X5_Y4_N2; Fanout = 5; REG Node = '4count:inst|45'
            Info: Total cell delay = 1.301 ns ( 62.16 % )
            Info: Total interconnect delay = 0.792 ns ( 37.84 % )
    Info: + Micro clock to output delay of source is 0.235 ns
    Info: + Micro setup delay of destination is 0.208 ns
Info: tsu for register "4count:inst|44" (data pin = "dnup", clock pin = "clk") is 2.659 ns
    Info: + Longest pin to register delay is 4.544 ns
        Info: 1: + IC(0.000 ns) + CELL(0.708 ns) = 0.708 ns; Loc. = PIN_4; Fanout = 4; PIN Node = 'dnup'
        Info: 2: + IC(1.638 ns) + CELL(0.319 ns) = 2.665 ns; Loc. = LC_X2_Y4_N5; Fanout = 2; COMB Node = '4count:inst|37~56'
        Info: 3: + IC(1.194 ns) + CELL(0.125 ns) = 3.984 ns; Loc. = LC_X2_Y4_N3; Fanout = 1; COMB Node = '4count:inst|55~73'
        Info: 4: + IC(0.191 ns) + CELL(0.369 ns) = 4.544 ns; Loc. = LC_X2_Y4_N4; Fanout = 4; REG Node = '4count:inst|44'
        Info: Total cell delay = 1.521 ns ( 33.47 % )
        Info: Total interconnect delay = 3.023 ns ( 66.53 % )
    Info: + Micro setup delay of destination is 0.208 ns
    Info: - Shortest clock path from clock "clk" to destination register is 2.093 ns
        Info: 1: + IC(0.000 ns) + CELL(0.727 ns) = 0.727 ns; Loc. = PIN_14; Fanout = 4; CLK Node = 'clk'
        Info: 2: + IC(0.792 ns) + CELL(0.574 ns) = 2.093 ns; Loc. = LC_X2_Y4_N4; Fanout = 4; REG Node = '4count:inst|44'
        Info: Total cell delay = 1.301 ns ( 62.16 % )
        Info: Total interconnect delay = 0.792 ns ( 37.84 % )
Info: tco from clock "clk" to destination pin "cout" through register "4count:inst|45" is 7.551 ns
    Info: + Longest clock path from clock "clk" to source register is 2.093 ns
        Info: 1: + IC(0.000 ns) + CELL(0.727 ns) = 0.727 ns; Loc. = PIN_14; Fanout = 4; CLK Node = 'clk'
        Info: 2: + IC(0.792 ns) + CELL(0.574 ns) = 2.093 ns; Loc. = LC_X5_Y4_N2; Fanout = 5; REG Node = '4count:inst|45'
        Info: Total cell delay = 1.301 ns ( 62.16 % )
        Info: Total interconnect delay = 0.792 ns ( 37.84 % )
    Info: + Micro clock to output delay of source is 0.235 ns
    Info: + Longest register to pin delay is 5.223 ns
        Info: 1: + IC(0.000 ns) + CELL(0.000 ns) = 0.000 ns; Loc. = LC_X5_Y4_N2; Fanout = 5; REG Node = '4count:inst|45'
        Info: 2: + IC(1.218 ns) + CELL(0.125 ns) = 1.343 ns; Loc. = LC_X2_Y4_N5; Fanout = 2; COMB Node = '4count:inst|37~56'
        Info: 3: + IC(0.507 ns) + CELL(0.319 ns) = 2.169 ns; Loc. = LC_X2_Y4_N8; Fanout = 1; COMB Node = '4count:inst|37~57'
        Info: 4: + IC(0.191 ns) + CELL(0.125 ns) = 2.485 ns; Loc. = LC_X2_Y4_N9; Fanout = 1; COMB Node = '4count:inst|37~58'
        Info: 5: + IC(1.284 ns) + CELL(1.454 ns) = 5.223 ns; Loc. = PIN_6; Fanout = 0; PIN Node = 'cout'
        Info: Total cell delay = 2.023 ns ( 38.73 % )
        Info: Total interconnect delay = 3.200 ns ( 61.27 % )
Info: Longest tpd from source pin "dnup" to destination pin "cout" is 6.545 ns
    Info: 1: + IC(0.000 ns) + CELL(0.708 ns) = 0.708 ns; Loc. = PIN_4; Fanout = 4; PIN Node = 'dnup'
    Info: 2: + IC(1.638 ns) + CELL(0.319 ns) = 2.665 ns; Loc. = LC_X2_Y4_N5; Fanout = 2; COMB Node = '4count:inst|37~56'
    Info: 3: + IC(0.507 ns) + CELL(0.319 ns) = 3.491 ns; Loc. = LC_X2_Y4_N8; Fanout = 1; COMB Node = '4count:inst|37~57'
    Info: 4: + IC(0.191 ns) + CELL(0.125 ns) = 3.807 ns; Loc. = LC_X2_Y4_N9; Fanout = 1; COMB Node = '4count:inst|37~58'
    Info: 5: + IC(1.284 ns) + CELL(1.454 ns) = 6.545 ns; Loc. = PIN_6; Fanout = 0; PIN Node = 'cout'
    Info: Total cell delay = 2.925 ns ( 44.69 % )
    Info: Total interconnect delay = 3.620 ns ( 55.31 % )
Info: th for register "4count:inst|45" (data pin = "ldn", clock pin = "clk") is -0.786 ns
    Info: + Longest clock path from clock "clk" to destination register is 2.093 ns
        Info: 1: + IC(0.000 ns) + CELL(0.727 ns) = 0.727 ns; Loc. = PIN_14; Fanout = 4; CLK Node = 'clk'
        Info: 2: + IC(0.792 ns) + CELL(0.574 ns) = 2.093 ns; Loc. = LC_X5_Y4_N2; Fanout = 5; REG Node = '4count:inst|45'
        Info: Total cell delay = 1.301 ns ( 62.16 % )
        Info: Total interconnect delay = 0.792 ns ( 37.84 % )
    Info: + Micro hold delay of destination is 0.138 ns
    Info: - Shortest pin to register delay is 3.017 ns
        Info: 1: + IC(0.000 ns) + CELL(0.708 ns) = 0.708 ns; Loc. = PIN_3; Fanout = 7; PIN Node = 'ldn'
        Info: 2: + IC(1.570 ns) + CELL(0.739 ns) = 3.017 ns; Loc. = LC_X5_Y4_N2; Fanout = 5; REG Node = '4count:inst|45'
        Info: Total cell delay = 1.447 ns ( 47.96 % )
        Info: Total interconnect delay = 1.570 ns ( 52.04 % )
Info: Parallel compilation was enabled but no parallel operations were performed
Info: Quartus II Classic Timing Analyzer was successful. 0 errors, 1 warning
    Info: Peak virtual memory: 249 megabytes
    Info: Processing ended: Wed May 10 10:40:25 2017
    Info: Elapsed time: 00:00:08
    Info: Total CPU time (on all processors): 00:00:03


