Classic Timing Analyzer report for sv21_ks
Sun Feb 26 14:03:10 2017
Quartus II Version 8.1 Build 163 10/28/2008 SJ Full Version


---------------------
; Table of Contents ;
---------------------
  1. Legal Notice
  2. Timing Analyzer Summary
  3. Timing Analyzer Settings
  4. tpd
  5. Timing Analyzer Messages



----------------
; Legal Notice ;
----------------
Copyright (C) 1991-2008 Altera Corporation
Your use of Altera Corporation's design tools, logic functions 
and other software and tools, and its AMPP partner logic 
functions, and any output files from any of the foregoing 
(including device programming or simulation files), and any 
associated documentation or information are expressly subject 
to the terms and conditions of the Altera Program License 
Subscription Agreement, Altera MegaCore Function License 
Agreement, or other applicable license agreement, including, 
without limitation, that your use is for the sole purpose of 
programming logic devices manufactured by Altera and sold by 
Altera or its authorized distributors.  Please refer to the 
applicable agreement for further details.



+----------------------------------------------------------------------------------------------------------------------------+
; Timing Analyzer Summary                                                                                                    ;
+------------------------------+-------+---------------+-------------+------+---------+------------+----------+--------------+
; Type                         ; Slack ; Required Time ; Actual Time ; From ; To      ; From Clock ; To Clock ; Failed Paths ;
+------------------------------+-------+---------------+-------------+------+---------+------------+----------+--------------+
; Worst-case tpd               ; N/A   ; None          ; 9.342 ns    ; b[0] ; sxor[0] ; --         ; --       ; 0            ;
; Total number of failed paths ;       ;               ;             ;      ;         ;            ;          ; 0            ;
+------------------------------+-------+---------------+-------------+------+---------+------------+----------+--------------+


+--------------------------------------------------------------------------------------------------------------------+
; Timing Analyzer Settings                                                                                           ;
+---------------------------------------------------------------------+--------------------+------+----+-------------+
; Option                                                              ; Setting            ; From ; To ; Entity Name ;
+---------------------------------------------------------------------+--------------------+------+----+-------------+
; Device Name                                                         ; EP2S15F484C3       ;      ;    ;             ;
; Timing Models                                                       ; Final              ;      ;    ;             ;
; Default hold multicycle                                             ; Same as Multicycle ;      ;    ;             ;
; Cut paths between unrelated clock domains                           ; On                 ;      ;    ;             ;
; Cut off read during write signal paths                              ; On                 ;      ;    ;             ;
; Cut off feedback from I/O pins                                      ; On                 ;      ;    ;             ;
; Report Combined Fast/Slow Timing                                    ; Off                ;      ;    ;             ;
; Ignore Clock Settings                                               ; Off                ;      ;    ;             ;
; Analyze latches as synchronous elements                             ; On                 ;      ;    ;             ;
; Enable Recovery/Removal analysis                                    ; Off                ;      ;    ;             ;
; Enable Clock Latency                                                ; Off                ;      ;    ;             ;
; Use TimeQuest Timing Analyzer                                       ; Off                ;      ;    ;             ;
; Number of source nodes to report per destination node               ; 10                 ;      ;    ;             ;
; Number of destination nodes to report                               ; 10                 ;      ;    ;             ;
; Number of paths to report                                           ; 200                ;      ;    ;             ;
; Report Minimum Timing Checks                                        ; Off                ;      ;    ;             ;
; Use Fast Timing Models                                              ; Off                ;      ;    ;             ;
; Report IO Paths Separately                                          ; Off                ;      ;    ;             ;
; Perform Multicorner Analysis                                        ; On                 ;      ;    ;             ;
; Reports the worst-case path for each clock domain and analysis      ; Off                ;      ;    ;             ;
; Removes common clock path pessimism (CCPP) during slack computation ; Off                ;      ;    ;             ;
; Output I/O Timing Endpoint                                          ; Near End           ;      ;    ;             ;
+---------------------------------------------------------------------+--------------------+------+----+-------------+


+--------------------------------------------------------------+
; tpd                                                          ;
+-------+-------------------+-----------------+------+---------+
; Slack ; Required P2P Time ; Actual P2P Time ; From ; To      ;
+-------+-------------------+-----------------+------+---------+
; N/A   ; None              ; 9.342 ns        ; b[0] ; sxor[0] ;
; N/A   ; None              ; 9.172 ns        ; a[0] ; sxor[0] ;
; N/A   ; None              ; 9.171 ns        ; b[0] ; vxor[0] ;
; N/A   ; None              ; 9.001 ns        ; a[0] ; vxor[0] ;
; N/A   ; None              ; 8.616 ns        ; a[1] ; vand[1] ;
; N/A   ; None              ; 8.578 ns        ; a[1] ; vxor[1] ;
; N/A   ; None              ; 8.543 ns        ; a[1] ; sand[1] ;
; N/A   ; None              ; 8.534 ns        ; a[1] ; sxor[1] ;
; N/A   ; None              ; 8.318 ns        ; a[1] ; vor[1]  ;
; N/A   ; None              ; 8.298 ns        ; a[1] ; sor[1]  ;
; N/A   ; None              ; 7.762 ns        ; b[1] ; vand[1] ;
; N/A   ; None              ; 7.724 ns        ; b[1] ; vxor[1] ;
; N/A   ; None              ; 7.689 ns        ; b[1] ; sand[1] ;
; N/A   ; None              ; 7.680 ns        ; b[1] ; sxor[1] ;
; N/A   ; None              ; 7.657 ns        ; b[0] ; sand[0] ;
; N/A   ; None              ; 7.647 ns        ; b[0] ; vand[0] ;
; N/A   ; None              ; 7.606 ns        ; a[0] ; sand[0] ;
; N/A   ; None              ; 7.596 ns        ; a[0] ; vand[0] ;
; N/A   ; None              ; 7.557 ns        ; a[3] ; sand[3] ;
; N/A   ; None              ; 7.509 ns        ; b[3] ; sxor[3] ;
; N/A   ; None              ; 7.485 ns        ; a[3] ; vor[3]  ;
; N/A   ; None              ; 7.454 ns        ; b[0] ; vor[0]  ;
; N/A   ; None              ; 7.454 ns        ; b[0] ; sor[0]  ;
; N/A   ; None              ; 7.425 ns        ; a[3] ; sor[3]  ;
; N/A   ; None              ; 7.403 ns        ; a[0] ; vor[0]  ;
; N/A   ; None              ; 7.403 ns        ; a[0] ; sor[0]  ;
; N/A   ; None              ; 7.363 ns        ; a[3] ; vand[3] ;
; N/A   ; None              ; 7.337 ns        ; b[3] ; vxor[3] ;
; N/A   ; None              ; 7.325 ns        ; a[3] ; sxor[3] ;
; N/A   ; None              ; 7.293 ns        ; a[2] ; vor[2]  ;
; N/A   ; None              ; 7.281 ns        ; a[2] ; sor[2]  ;
; N/A   ; None              ; 7.267 ns        ; b[2] ; vor[2]  ;
; N/A   ; None              ; 7.255 ns        ; b[2] ; sor[2]  ;
; N/A   ; None              ; 7.210 ns        ; b[3] ; vor[3]  ;
; N/A   ; None              ; 7.157 ns        ; a[2] ; vand[2] ;
; N/A   ; None              ; 7.153 ns        ; a[3] ; vxor[3] ;
; N/A   ; None              ; 7.153 ns        ; b[3] ; sand[3] ;
; N/A   ; None              ; 7.150 ns        ; b[3] ; sor[3]  ;
; N/A   ; None              ; 7.137 ns        ; a[2] ; sand[2] ;
; N/A   ; None              ; 7.131 ns        ; b[2] ; vand[2] ;
; N/A   ; None              ; 7.111 ns        ; b[2] ; sand[2] ;
; N/A   ; None              ; 7.083 ns        ; b[1] ; vor[1]  ;
; N/A   ; None              ; 7.063 ns        ; b[1] ; sor[1]  ;
; N/A   ; None              ; 6.959 ns        ; b[3] ; vand[3] ;
; N/A   ; None              ; 6.919 ns        ; a[2] ; vxor[2] ;
; N/A   ; None              ; 6.909 ns        ; a[2] ; sxor[2] ;
; N/A   ; None              ; 6.820 ns        ; b[2] ; vxor[2] ;
; N/A   ; None              ; 6.810 ns        ; b[2] ; sxor[2] ;
+-------+-------------------+-----------------+------+---------+


+--------------------------+
; Timing Analyzer Messages ;
+--------------------------+
Info: *******************************************************************
Info: Running Quartus II Classic Timing Analyzer
    Info: Version 8.1 Build 163 10/28/2008 SJ Full Version
    Info: Processing started: Sun Feb 26 14:03:09 2017
Info: Command: quartus_tan --read_settings_files=off --write_settings_files=off sv21_ks -c sv21_ks --timing_analysis_only
Info: Parallel compilation is enabled and will use 2 of the 2 processors detected
Info: Longest tpd from source pin "b[0]" to destination pin "sxor[0]" is 9.342 ns
    Info: 1: + IC(0.000 ns) + CELL(0.827 ns) = 0.827 ns; Loc. = PIN_V8; Fanout = 3; PIN Node = 'b[0]'
    Info: 2: + IC(3.764 ns) + CELL(0.272 ns) = 4.863 ns; Loc. = LCCOMB_X34_Y1_N20; Fanout = 2; COMB Node = 's21_ks:inst|inst17'
    Info: 3: + IC(2.527 ns) + CELL(1.952 ns) = 9.342 ns; Loc. = PIN_D8; Fanout = 0; PIN Node = 'sxor[0]'
    Info: Total cell delay = 3.051 ns ( 32.66 % )
    Info: Total interconnect delay = 6.291 ns ( 67.34 % )
Info: Parallel compilation was enabled but no parallel operations were performed
Info: Quartus II Classic Timing Analyzer was successful. 0 errors, 0 warnings
    Info: Peak virtual memory: 245 megabytes
    Info: Processing ended: Sun Feb 26 14:03:10 2017
    Info: Elapsed time: 00:00:01
    Info: Total CPU time (on all processors): 00:00:01


