Classic Timing Analyzer report for v21_ks
Sun Feb 26 13:47:38 2017
Quartus II Version 8.1 Build 163 10/28/2008 SJ Full Version


---------------------
; Table of Contents ;
---------------------
  1. Legal Notice
  2. Timing Analyzer Summary
  3. Timing Analyzer Settings
  4. tpd
  5. Timing Analyzer Messages



----------------
; Legal Notice ;
----------------
Copyright (C) 1991-2008 Altera Corporation
Your use of Altera Corporation's design tools, logic functions 
and other software and tools, and its AMPP partner logic 
functions, and any output files from any of the foregoing 
(including device programming or simulation files), and any 
associated documentation or information are expressly subject 
to the terms and conditions of the Altera Program License 
Subscription Agreement, Altera MegaCore Function License 
Agreement, or other applicable license agreement, including, 
without limitation, that your use is for the sole purpose of 
programming logic devices manufactured by Altera and sold by 
Altera or its authorized distributors.  Please refer to the 
applicable agreement for further details.



+----------------------------------------------------------------------------------------------------------------------------+
; Timing Analyzer Summary                                                                                                    ;
+------------------------------+-------+---------------+-------------+------+---------+------------+----------+--------------+
; Type                         ; Slack ; Required Time ; Actual Time ; From ; To      ; From Clock ; To Clock ; Failed Paths ;
+------------------------------+-------+---------------+-------------+------+---------+------------+----------+--------------+
; Worst-case tpd               ; N/A   ; None          ; 9.169 ns    ; b[0] ; vand[0] ; --         ; --       ; 0            ;
; Total number of failed paths ;       ;               ;             ;      ;         ;            ;          ; 0            ;
+------------------------------+-------+---------------+-------------+------+---------+------------+----------+--------------+


+--------------------------------------------------------------------------------------------------------------------+
; Timing Analyzer Settings                                                                                           ;
+---------------------------------------------------------------------+--------------------+------+----+-------------+
; Option                                                              ; Setting            ; From ; To ; Entity Name ;
+---------------------------------------------------------------------+--------------------+------+----+-------------+
; Device Name                                                         ; EP2S15F484C3       ;      ;    ;             ;
; Timing Models                                                       ; Final              ;      ;    ;             ;
; Default hold multicycle                                             ; Same as Multicycle ;      ;    ;             ;
; Cut paths between unrelated clock domains                           ; On                 ;      ;    ;             ;
; Cut off read during write signal paths                              ; On                 ;      ;    ;             ;
; Cut off feedback from I/O pins                                      ; On                 ;      ;    ;             ;
; Report Combined Fast/Slow Timing                                    ; Off                ;      ;    ;             ;
; Ignore Clock Settings                                               ; Off                ;      ;    ;             ;
; Analyze latches as synchronous elements                             ; On                 ;      ;    ;             ;
; Enable Recovery/Removal analysis                                    ; Off                ;      ;    ;             ;
; Enable Clock Latency                                                ; Off                ;      ;    ;             ;
; Use TimeQuest Timing Analyzer                                       ; Off                ;      ;    ;             ;
; Number of source nodes to report per destination node               ; 10                 ;      ;    ;             ;
; Number of destination nodes to report                               ; 10                 ;      ;    ;             ;
; Number of paths to report                                           ; 200                ;      ;    ;             ;
; Report Minimum Timing Checks                                        ; Off                ;      ;    ;             ;
; Use Fast Timing Models                                              ; Off                ;      ;    ;             ;
; Report IO Paths Separately                                          ; Off                ;      ;    ;             ;
; Perform Multicorner Analysis                                        ; On                 ;      ;    ;             ;
; Reports the worst-case path for each clock domain and analysis      ; Off                ;      ;    ;             ;
; Removes common clock path pessimism (CCPP) during slack computation ; Off                ;      ;    ;             ;
; Output I/O Timing Endpoint                                          ; Near End           ;      ;    ;             ;
+---------------------------------------------------------------------+--------------------+------+----+-------------+


+--------------------------------------------------------------+
; tpd                                                          ;
+-------+-------------------+-----------------+------+---------+
; Slack ; Required P2P Time ; Actual P2P Time ; From ; To      ;
+-------+-------------------+-----------------+------+---------+
; N/A   ; None              ; 9.169 ns        ; b[0] ; vand[0] ;
; N/A   ; None              ; 8.961 ns        ; a[2] ; vxor[2] ;
; N/A   ; None              ; 8.924 ns        ; a[0] ; vand[0] ;
; N/A   ; None              ; 8.840 ns        ; a[3] ; vxor[3] ;
; N/A   ; None              ; 8.837 ns        ; a[3] ; vor[3]  ;
; N/A   ; None              ; 8.725 ns        ; b[3] ; vxor[3] ;
; N/A   ; None              ; 8.587 ns        ; a[2] ; vor[2]  ;
; N/A   ; None              ; 8.577 ns        ; b[2] ; vxor[2] ;
; N/A   ; None              ; 8.489 ns        ; b[3] ; vor[3]  ;
; N/A   ; None              ; 8.477 ns        ; b[2] ; vor[2]  ;
; N/A   ; None              ; 8.477 ns        ; a[3] ; vand[3] ;
; N/A   ; None              ; 8.455 ns        ; b[0] ; vor[0]  ;
; N/A   ; None              ; 8.392 ns        ; a[2] ; vand[2] ;
; N/A   ; None              ; 8.210 ns        ; a[0] ; vor[0]  ;
; N/A   ; None              ; 8.130 ns        ; b[3] ; vand[3] ;
; N/A   ; None              ; 8.046 ns        ; b[0] ; vxor[0] ;
; N/A   ; None              ; 8.008 ns        ; b[2] ; vand[2] ;
; N/A   ; None              ; 7.875 ns        ; a[0] ; vxor[0] ;
; N/A   ; None              ; 7.578 ns        ; a[1] ; vand[1] ;
; N/A   ; None              ; 7.575 ns        ; a[1] ; vor[1]  ;
; N/A   ; None              ; 7.574 ns        ; b[1] ; vand[1] ;
; N/A   ; None              ; 7.571 ns        ; b[1] ; vor[1]  ;
; N/A   ; None              ; 7.298 ns        ; b[1] ; vxor[1] ;
; N/A   ; None              ; 7.163 ns        ; a[1] ; vxor[1] ;
+-------+-------------------+-----------------+------+---------+


+--------------------------+
; Timing Analyzer Messages ;
+--------------------------+
Info: *******************************************************************
Info: Running Quartus II Classic Timing Analyzer
    Info: Version 8.1 Build 163 10/28/2008 SJ Full Version
    Info: Processing started: Sun Feb 26 13:47:37 2017
Info: Command: quartus_tan --read_settings_files=off --write_settings_files=off v21_ks -c v21_ks --timing_analysis_only
Info: Parallel compilation is enabled and will use 2 of the 2 processors detected
Info: Longest tpd from source pin "b[0]" to destination pin "vand[0]" is 9.169 ns
    Info: 1: + IC(0.000 ns) + CELL(0.857 ns) = 0.857 ns; Loc. = PIN_AB8; Fanout = 3; PIN Node = 'b[0]'
    Info: 2: + IC(4.607 ns) + CELL(0.346 ns) = 5.810 ns; Loc. = LCCOMB_X26_Y23_N0; Fanout = 1; COMB Node = 'vand~0'
    Info: 3: + IC(1.427 ns) + CELL(1.932 ns) = 9.169 ns; Loc. = PIN_J15; Fanout = 0; PIN Node = 'vand[0]'
    Info: Total cell delay = 3.135 ns ( 34.19 % )
    Info: Total interconnect delay = 6.034 ns ( 65.81 % )
Info: Parallel compilation was enabled but no parallel operations were performed
Info: Quartus II Classic Timing Analyzer was successful. 0 errors, 0 warnings
    Info: Peak virtual memory: 245 megabytes
    Info: Processing ended: Sun Feb 26 13:47:39 2017
    Info: Elapsed time: 00:00:02
    Info: Total CPU time (on all processors): 00:00:01


