/*
WARNING: Do NOT edit the input and output ports in this file in a text
editor if you plan to continue editing the block that represents it in
the Block Editor! File corruption is VERY likely to occur.
*/
/*
Copyright (C) 1991-2008 Altera Corporation
Your use of Altera Corporation's design tools, logic functions 
and other software and tools, and its AMPP partner logic 
functions, and any output files from any of the foregoing 
(including device programming or simulation files), and any 
associated documentation or information are expressly subject 
to the terms and conditions of the Altera Program License 
Subscription Agreement, Altera MegaCore Function License 
Agreement, or other applicable license agreement, including, 
without limitation, that your use is for the sole purpose of 
programming logic devices manufactured by Altera and sold by 
Altera or its authorized distributors.  Please refer to the 
applicable agreement for further details.
*/
//#pragma file_not_in_maxplusii_format
(header "graphic" (version "1.3"))
(pin
	(input)
	(rect -64 104 104 120)
	(text "INPUT" (rect 133 0 161 10)(font "Arial" (font_size 6)))
	(text "clk" (rect 5 0 19 12)(font "Arial" ))
	(pt 168 8)
	(drawing
		(line (pt 92 12)(pt 117 12)(line_width 1))
		(line (pt 92 4)(pt 117 4)(line_width 1))
		(line (pt 121 8)(pt 168 8)(line_width 1))
		(line (pt 92 12)(pt 92 4)(line_width 1))
		(line (pt 117 4)(pt 121 8)(line_width 1))
		(line (pt 117 12)(pt 121 8)(line_width 1))
	)
	(text "VCC" (rect 136 7 156 17)(font "Arial" (font_size 6)))
	(annotation_block (location)(rect -112 120 -64 136))
)
(pin
	(output)
	(rect 304 232 480 248)
	(text "OUTPUT" (rect 1 0 39 10)(font "Arial" (font_size 6)))
	(text "g" (rect 90 0 95 12)(font "Arial" ))
	(pt 0 8)
	(drawing
		(line (pt 0 8)(pt 52 8)(line_width 1))
		(line (pt 52 4)(pt 78 4)(line_width 1))
		(line (pt 52 12)(pt 78 12)(line_width 1))
		(line (pt 52 12)(pt 52 4)(line_width 1))
		(line (pt 78 4)(pt 82 8)(line_width 1))
		(line (pt 82 8)(pt 78 12)(line_width 1))
		(line (pt 78 12)(pt 82 8)(line_width 1))
	)
	(annotation_block (location)(rect 480 248 528 264))
)
(pin
	(output)
	(rect 144 312 320 328)
	(text "OUTPUT" (rect 1 0 39 10)(font "Arial" (font_size 6)))
	(text "d[3..0]" (rect 90 0 121 12)(font "Arial" ))
	(pt 0 8)
	(drawing
		(line (pt 0 8)(pt 52 8)(line_width 1))
		(line (pt 52 4)(pt 78 4)(line_width 1))
		(line (pt 52 12)(pt 78 12)(line_width 1))
		(line (pt 52 12)(pt 52 4)(line_width 1))
		(line (pt 78 4)(pt 82 8)(line_width 1))
		(line (pt 82 8)(pt 78 12)(line_width 1))
		(line (pt 78 12)(pt 82 8)(line_width 1))
	)
	(annotation_block (location)(rect 320 328 368 384))
)
(symbol
	(rect 144 80 240 176)
	(text "v93_35clock" (rect 5 0 67 12)(font "Arial" ))
	(text "inst" (rect 8 80 25 92)(font "Arial" ))
	(port
		(pt 0 32)
		(input)
		(text "clk" (rect 0 0 14 12)(font "Arial" ))
		(text "clk" (rect 21 27 35 39)(font "Arial" ))
		(line (pt 0 32)(pt 16 32)(line_width 1))
	)
	(port
		(pt 96 32)
		(output)
		(text "w[34..0]" (rect 0 0 38 12)(font "Arial" ))
		(text "w[34..0]" (rect 37 27 75 39)(font "Arial" ))
		(line (pt 96 32)(pt 80 32)(line_width 3))
	)
	(drawing
		(rectangle (rect 16 16 80 80)(line_width 1))
	)
)
(symbol
	(rect 144 192 264 288)
	(text "v101_pwm" (rect 5 0 58 12)(font "Arial" ))
	(text "inst1" (rect 8 80 31 92)(font "Arial" ))
	(port
		(pt 0 32)
		(input)
		(text "c" (rect 0 0 5 12)(font "Arial" ))
		(text "c" (rect 21 27 26 39)(font "Arial" ))
		(line (pt 0 32)(pt 16 32)(line_width 1))
	)
	(port
		(pt 0 48)
		(input)
		(text "d[3..0]" (rect 0 0 31 12)(font "Arial" ))
		(text "d[3..0]" (rect 21 43 52 55)(font "Arial" ))
		(line (pt 0 48)(pt 16 48)(line_width 3))
	)
	(port
		(pt 120 32)
		(output)
		(text "q[3..0]" (rect 0 0 31 12)(font "Arial" ))
		(text "q[3..0]" (rect 68 27 99 39)(font "Arial" ))
		(line (pt 120 32)(pt 104 32)(line_width 3))
	)
	(port
		(pt 120 48)
		(output)
		(text "g" (rect 0 0 5 12)(font "Arial" ))
		(text "g" (rect 94 43 99 55)(font "Arial" ))
		(line (pt 120 48)(pt 104 48)(line_width 1))
	)
	(drawing
		(rectangle (rect 16 16 104 80)(line_width 1))
	)
)
(connector
	(pt 104 112)
	(pt 144 112)
)
(connector
	(pt 104 240)
	(pt 104 320)
	(bus)
)
(connector
	(pt 104 320)
	(pt 144 320)
	(bus)
)
(connector
	(pt 104 240)
	(pt 144 240)
	(bus)
)
(connector
	(text "w[28..25]" (rect 50 248 94 260)(font "Arial" ))
	(pt 56 240)
	(pt 104 240)
	(bus)
)
(connector
	(pt 264 240)
	(pt 304 240)
)
(connector
	(text "w[10]" (rect 88 208 113 220)(font "Arial" ))
	(pt 56 224)
	(pt 144 224)
)
(connector
	(text "w[34..0]" (rect 262 96 300 108)(font "Arial" ))
	(pt 240 112)
	(pt 312 112)
	(bus)
)
(junction (pt 104 240))
