/*
WARNING: Do NOT edit the input and output ports in this file in a text
editor if you plan to continue editing the block that represents it in
the Block Editor! File corruption is VERY likely to occur.
*/
/*
Copyright (C) 1991-2008 Altera Corporation
Your use of Altera Corporation's design tools, logic functions 
and other software and tools, and its AMPP partner logic 
functions, and any output files from any of the foregoing 
(including device programming or simulation files), and any 
associated documentation or information are expressly subject 
to the terms and conditions of the Altera Program License 
Subscription Agreement, Altera MegaCore Function License 
Agreement, or other applicable license agreement, including, 
without limitation, that your use is for the sole purpose of 
programming logic devices manufactured by Altera and sold by 
Altera or its authorized distributors.  Please refer to the 
applicable agreement for further details.
*/
//#pragma file_not_in_maxplusii_format
(header "graphic" (version "1.3"))
(pin
	(input)
	(rect -8 88 160 104)
	(text "INPUT" (rect 133 0 161 10)(font "Arial" (font_size 6)))
	(text "d[3..0]" (rect 9 0 40 12)(font "Arial" ))
	(pt 168 8)
	(drawing
		(line (pt 92 12)(pt 117 12)(line_width 1))
		(line (pt 92 4)(pt 117 4)(line_width 1))
		(line (pt 121 8)(pt 168 8)(line_width 1))
		(line (pt 92 12)(pt 92 4)(line_width 1))
		(line (pt 117 4)(pt 121 8)(line_width 1))
		(line (pt 117 12)(pt 121 8)(line_width 1))
	)
	(text "VCC" (rect 136 7 156 17)(font "Arial" (font_size 6)))
)
(pin
	(output)
	(rect 472 88 648 104)
	(text "OUTPUT" (rect 1 0 39 10)(font "Arial" (font_size 6)))
	(text "si[6..0]" (rect 90 0 124 12)(font "Arial" ))
	(pt 0 8)
	(drawing
		(line (pt 0 8)(pt 52 8)(line_width 1))
		(line (pt 52 4)(pt 78 4)(line_width 1))
		(line (pt 52 12)(pt 78 12)(line_width 1))
		(line (pt 52 12)(pt 52 4)(line_width 1))
		(line (pt 78 4)(pt 82 8)(line_width 1))
		(line (pt 82 8)(pt 78 12)(line_width 1))
		(line (pt 78 12)(pt 82 8)(line_width 1))
	)
)
(pin
	(output)
	(rect 472 200 648 216)
	(text "OUTPUT" (rect 1 0 39 10)(font "Arial" (font_size 6)))
	(text "vi[6..0]" (rect 90 0 125 12)(font "Arial" ))
	(pt 0 8)
	(drawing
		(line (pt 0 8)(pt 52 8)(line_width 1))
		(line (pt 52 4)(pt 78 4)(line_width 1))
		(line (pt 52 12)(pt 78 12)(line_width 1))
		(line (pt 52 12)(pt 52 4)(line_width 1))
		(line (pt 78 4)(pt 82 8)(line_width 1))
		(line (pt 82 8)(pt 78 12)(line_width 1))
		(line (pt 78 12)(pt 82 8)(line_width 1))
	)
)
(symbol
	(rect 264 176 376 272)
	(text "v46_led" (rect 5 0 43 12)(font "Arial" ))
	(text "inst1" (rect 8 80 31 92)(font "Arial" ))
	(port
		(pt 0 32)
		(input)
		(text "d[3..0]" (rect 0 0 31 12)(font "Arial" ))
		(text "d[3..0]" (rect 21 27 52 39)(font "Arial" ))
		(line (pt 0 32)(pt 16 32)(line_width 3))
	)
	(port
		(pt 112 32)
		(output)
		(text "i[6..0]" (rect 0 0 28 12)(font "Arial" ))
		(text "i[6..0]" (rect 63 27 91 39)(font "Arial" ))
		(line (pt 112 32)(pt 96 32)(line_width 3))
	)
	(drawing
		(rectangle (rect 16 16 96 80)(line_width 1))
	)
)
(symbol
	(rect 264 64 384 160)
	(text "s46_led" (rect 5 0 49 14)(font "Arial" (font_size 8)))
	(text "inst" (rect 8 80 25 92)(font "Arial" ))
	(port
		(pt 0 32)
		(input)
		(text "d[3..0]" (rect 0 0 35 14)(font "Arial" (font_size 8)))
		(text "d[3..0]" (rect 21 27 56 41)(font "Arial" (font_size 8)))
		(line (pt 0 32)(pt 16 32)(line_width 3))
	)
	(port
		(pt 120 32)
		(output)
		(text "i[6..0]" (rect 0 0 30 14)(font "Arial" (font_size 8)))
		(text "i[6..0]" (rect 69 27 99 41)(font "Arial" (font_size 8)))
		(line (pt 120 32)(pt 104 32)(line_width 3))
	)
	(drawing
		(rectangle (rect 16 16 104 80)(line_width 1))
	)
)
(connector
	(pt 208 96)
	(pt 208 208)
	(bus)
)
(connector
	(pt 208 208)
	(pt 264 208)
	(bus)
)
(connector
	(pt 160 96)
	(pt 208 96)
	(bus)
)
(connector
	(pt 208 96)
	(pt 264 96)
	(bus)
)
(connector
	(pt 384 96)
	(pt 472 96)
	(bus)
)
(connector
	(pt 472 208)
	(pt 376 208)
	(bus)
)
(junction (pt 208 96))
