Simulator report for sv55_pd
Tue Apr 18 23:41:43 2017
Quartus II Version 8.1 Build 163 10/28/2008 SJ Full Version


---------------------
; Table of Contents ;
---------------------
  1. Legal Notice
  2. Simulator Summary
  3. Simulator Settings
  4. Simulation Waveforms
  5. Coverage Summary
  6. Complete 1/0-Value Coverage
  7. Missing 1-Value Coverage
  8. Missing 0-Value Coverage
  9. Simulator INI Usage
 10. Simulator Messages



----------------
; Legal Notice ;
----------------
Copyright (C) 1991-2008 Altera Corporation
Your use of Altera Corporation's design tools, logic functions 
and other software and tools, and its AMPP partner logic 
functions, and any output files from any of the foregoing 
(including device programming or simulation files), and any 
associated documentation or information are expressly subject 
to the terms and conditions of the Altera Program License 
Subscription Agreement, Altera MegaCore Function License 
Agreement, or other applicable license agreement, including, 
without limitation, that your use is for the sole purpose of 
programming logic devices manufactured by Altera and sold by 
Altera or its authorized distributors.  Please refer to the 
applicable agreement for further details.



+--------------------------------------------+
; Simulator Summary                          ;
+-----------------------------+--------------+
; Type                        ; Value        ;
+-----------------------------+--------------+
; Simulation Start Time       ; 0 ps         ;
; Simulation End Time         ; 1.0 us       ;
; Simulation Netlist Size     ; 34 nodes     ;
; Simulation Coverage         ;     100.00 % ;
; Total Number of Transitions ; 302          ;
; Simulation Breakpoints      ; 0            ;
; Family                      ; Stratix II   ;
+-----------------------------+--------------+


+-------------------------------------------------------------------------------------------------------------------------+
; Simulator Settings                                                                                                      ;
+--------------------------------------------------------------------------------------------+------------+---------------+
; Option                                                                                     ; Setting    ; Default Value ;
+--------------------------------------------------------------------------------------------+------------+---------------+
; Simulation mode                                                                            ; Functional ; Timing        ;
; Start time                                                                                 ; 0 ns       ; 0 ns          ;
; Simulation results format                                                                  ; CVWF       ;               ;
; Add pins automatically to simulation output waveforms                                      ; On         ; On            ;
; Check outputs                                                                              ; Off        ; Off           ;
; Report simulation coverage                                                                 ; On         ; On            ;
; Display complete 1/0 value coverage report                                                 ; On         ; On            ;
; Display missing 1-value coverage report                                                    ; On         ; On            ;
; Display missing 0-value coverage report                                                    ; On         ; On            ;
; Detect setup and hold time violations                                                      ; Off        ; Off           ;
; Detect glitches                                                                            ; Off        ; Off           ;
; Disable timing delays in Timing Simulation                                                 ; Off        ; Off           ;
; Generate Signal Activity File                                                              ; Off        ; Off           ;
; Generate VCD File for PowerPlay Power Analyzer                                             ; Off        ; Off           ;
; Group bus channels in simulation results                                                   ; Off        ; Off           ;
; Preserve fewer signal transitions to reduce memory requirements                            ; On         ; On            ;
; Trigger vector comparison with the specified mode                                          ; INPUT_EDGE ; INPUT_EDGE    ;
; Disable setup and hold time violations detection in input registers of bi-directional pins ; Off        ; Off           ;
; Overwrite Waveform Inputs With Simulation Outputs                                          ; On         ;               ;
; Perform Glitch Filtering in Timing Simulation                                              ; Auto       ; Auto          ;
+--------------------------------------------------------------------------------------------+------------+---------------+


+----------------------+
; Simulation Waveforms ;
+----------------------+
Waveform report data cannot be output to ASCII.
Please use Quartus II to view the waveform report data.


+--------------------------------------------------------------------+
; Coverage Summary                                                   ;
+-----------------------------------------------------+--------------+
; Type                                                ; Value        ;
+-----------------------------------------------------+--------------+
; Total coverage as a percentage                      ;     100.00 % ;
; Total nodes checked                                 ; 34           ;
; Total output ports checked                          ; 34           ;
; Total output ports with complete 1/0-value coverage ; 34           ;
; Total output ports with no 1/0-value coverage       ; 0            ;
; Total output ports with no 1-value coverage         ; 0            ;
; Total output ports with no 0-value coverage         ; 0            ;
+-----------------------------------------------------+--------------+


The following table displays output ports that toggle between 1 and 0 during simulation.
+------------------------------------------------------------------------------------------------------+
; Complete 1/0-Value Coverage                                                                          ;
+-----------------------------------------+-----------------------------------------+------------------+
; Node Name                               ; Output Port Name                        ; Output Port Type ;
+-----------------------------------------+-----------------------------------------+------------------+
; |sv55_pd|p                              ; |sv55_pd|p                              ; pin_out          ;
; |sv55_pd|d[3]                           ; |sv55_pd|d[3]                           ; out              ;
; |sv55_pd|d[2]                           ; |sv55_pd|d[2]                           ; out              ;
; |sv55_pd|d[1]                           ; |sv55_pd|d[1]                           ; out              ;
; |sv55_pd|d[0]                           ; |sv55_pd|d[0]                           ; out              ;
; |sv55_pd|sq[3]                          ; |sv55_pd|sq[3]                          ; pin_out          ;
; |sv55_pd|sq[2]                          ; |sv55_pd|sq[2]                          ; pin_out          ;
; |sv55_pd|sq[1]                          ; |sv55_pd|sq[1]                          ; pin_out          ;
; |sv55_pd|sq[0]                          ; |sv55_pd|sq[0]                          ; pin_out          ;
; |sv55_pd|vp[2]                          ; |sv55_pd|vp[2]                          ; pin_out          ;
; |sv55_pd|vp[1]                          ; |sv55_pd|vp[1]                          ; pin_out          ;
; |sv55_pd|vp[0]                          ; |sv55_pd|vp[0]                          ; pin_out          ;
; |sv55_pd|vq[3]                          ; |sv55_pd|vq[3]                          ; pin_out          ;
; |sv55_pd|vq[2]                          ; |sv55_pd|vq[2]                          ; pin_out          ;
; |sv55_pd|vq[1]                          ; |sv55_pd|vq[1]                          ; pin_out          ;
; |sv55_pd|vq[0]                          ; |sv55_pd|vq[0]                          ; pin_out          ;
; |sv55_pd|v55_pd:inst1|p[2]              ; |sv55_pd|v55_pd:inst1|p[2]              ; out0             ;
; |sv55_pd|v55_pd:inst1|q~0               ; |sv55_pd|v55_pd:inst1|q~0               ; out0             ;
; |sv55_pd|v55_pd:inst1|q[2]              ; |sv55_pd|v55_pd:inst1|q[2]              ; out0             ;
; |sv55_pd|v55_pd:inst1|p[1]              ; |sv55_pd|v55_pd:inst1|p[1]              ; out0             ;
; |sv55_pd|v55_pd:inst1|q~2               ; |sv55_pd|v55_pd:inst1|q~2               ; out0             ;
; |sv55_pd|v55_pd:inst1|q[1]              ; |sv55_pd|v55_pd:inst1|q[1]              ; out0             ;
; |sv55_pd|v55_pd:inst1|p[0]              ; |sv55_pd|v55_pd:inst1|p[0]              ; out0             ;
; |sv55_pd|v55_pd:inst1|q~4               ; |sv55_pd|v55_pd:inst1|q~4               ; out0             ;
; |sv55_pd|v55_pd:inst1|q[0]              ; |sv55_pd|v55_pd:inst1|q[0]              ; out0             ;
; |sv55_pd|s55_pd:inst|inst3              ; |sv55_pd|s55_pd:inst|inst3              ; out0             ;
; |sv55_pd|s55_pd:inst|inst2              ; |sv55_pd|s55_pd:inst|inst2              ; out0             ;
; |sv55_pd|s55_pd:inst|inst               ; |sv55_pd|s55_pd:inst|inst               ; out0             ;
; |sv55_pd|s55_pd:inst|s51_hs:inst1|inst  ; |sv55_pd|s55_pd:inst|s51_hs:inst1|inst  ; out0             ;
; |sv55_pd|s55_pd:inst|s51_hs:inst1|inst3 ; |sv55_pd|s55_pd:inst|s51_hs:inst1|inst3 ; out0             ;
; |sv55_pd|s55_pd:inst|s51_hs:inst5|inst  ; |sv55_pd|s55_pd:inst|s51_hs:inst5|inst  ; out0             ;
; |sv55_pd|s55_pd:inst|s51_hs:inst5|inst3 ; |sv55_pd|s55_pd:inst|s51_hs:inst5|inst3 ; out0             ;
; |sv55_pd|s55_pd:inst|s51_hs:inst6|inst  ; |sv55_pd|s55_pd:inst|s51_hs:inst6|inst  ; out0             ;
; |sv55_pd|s55_pd:inst|s51_hs:inst6|inst3 ; |sv55_pd|s55_pd:inst|s51_hs:inst6|inst3 ; out0             ;
+-----------------------------------------+-----------------------------------------+------------------+


The following table displays output ports that do not toggle to 1 during simulation.
+-------------------------------------------------+
; Missing 1-Value Coverage                        ;
+-----------+------------------+------------------+
; Node Name ; Output Port Name ; Output Port Type ;
+-----------+------------------+------------------+


The following table displays output ports that do not toggle to 0 during simulation.
+-------------------------------------------------+
; Missing 0-Value Coverage                        ;
+-----------+------------------+------------------+
; Node Name ; Output Port Name ; Output Port Type ;
+-----------+------------------+------------------+


+---------------------+
; Simulator INI Usage ;
+--------+------------+
; Option ; Usage      ;
+--------+------------+


+--------------------+
; Simulator Messages ;
+--------------------+
Info: *******************************************************************
Info: Running Quartus II Simulator
    Info: Version 8.1 Build 163 10/28/2008 SJ Full Version
    Info: Processing started: Tue Apr 18 23:41:35 2017
Info: Command: quartus_sim --read_settings_files=on --write_settings_files=off sv55_pd -c sv55_pd
Info: Using vector source file "E:/CU/Labs/sv55_pd.vwf"
Info: Overwriting simulation input file with simulation results
    Info: A backup of sv55_pd.vwf called sv55_pd.sim_ori.vwf has been created in the db folder
Info: Option to preserve fewer signal transitions to reduce memory requirements is enabled
    Info: Simulation has been partitioned into sub-simulations according to the maximum transition count determined by the engine. Transitions from memory will be flushed out to disk at the end of each sub-simulation to reduce memory requirements.
Info: Simulation partitioned into 1 sub-simulations
Info: Simulation coverage is     100.00 %
Info: Number of transitions in simulation is 302
Info: Vector file sv55_pd.vwf is saved in VWF text format. You can compress it into CVWF format in order to reduce file size. For more details please refer to the Quartus II Help.
Info: Quartus II Simulator was successful. 0 errors, 0 warnings
    Info: Peak virtual memory: 218 megabytes
    Info: Processing ended: Tue Apr 18 23:41:43 2017
    Info: Elapsed time: 00:00:08
    Info: Total CPU time (on all processors): 00:00:01


