Classic Timing Analyzer report for sv55_pd
Tue Apr 18 23:40:28 2017
Quartus II Version 8.1 Build 163 10/28/2008 SJ Full Version


---------------------
; Table of Contents ;
---------------------
  1. Legal Notice
  2. Timing Analyzer Summary
  3. Timing Analyzer Settings
  4. tpd
  5. Timing Analyzer Messages



----------------
; Legal Notice ;
----------------
Copyright (C) 1991-2008 Altera Corporation
Your use of Altera Corporation's design tools, logic functions 
and other software and tools, and its AMPP partner logic 
functions, and any output files from any of the foregoing 
(including device programming or simulation files), and any 
associated documentation or information are expressly subject 
to the terms and conditions of the Altera Program License 
Subscription Agreement, Altera MegaCore Function License 
Agreement, or other applicable license agreement, including, 
without limitation, that your use is for the sole purpose of 
programming logic devices manufactured by Altera and sold by 
Altera or its authorized distributors.  Please refer to the 
applicable agreement for further details.



+--------------------------------------------------------------------------------------------------------------------------+
; Timing Analyzer Summary                                                                                                  ;
+------------------------------+-------+---------------+-------------+------+-------+------------+----------+--------------+
; Type                         ; Slack ; Required Time ; Actual Time ; From ; To    ; From Clock ; To Clock ; Failed Paths ;
+------------------------------+-------+---------------+-------------+------+-------+------------+----------+--------------+
; Worst-case tpd               ; N/A   ; None          ; 10.724 ns   ; d[3] ; vp[2] ; --         ; --       ; 0            ;
; Total number of failed paths ;       ;               ;             ;      ;       ;            ;          ; 0            ;
+------------------------------+-------+---------------+-------------+------+-------+------------+----------+--------------+


+--------------------------------------------------------------------------------------------------------------------+
; Timing Analyzer Settings                                                                                           ;
+---------------------------------------------------------------------+--------------------+------+----+-------------+
; Option                                                              ; Setting            ; From ; To ; Entity Name ;
+---------------------------------------------------------------------+--------------------+------+----+-------------+
; Device Name                                                         ; EP2S15F484C3       ;      ;    ;             ;
; Timing Models                                                       ; Final              ;      ;    ;             ;
; Default hold multicycle                                             ; Same as Multicycle ;      ;    ;             ;
; Cut paths between unrelated clock domains                           ; On                 ;      ;    ;             ;
; Cut off read during write signal paths                              ; On                 ;      ;    ;             ;
; Cut off feedback from I/O pins                                      ; On                 ;      ;    ;             ;
; Report Combined Fast/Slow Timing                                    ; Off                ;      ;    ;             ;
; Ignore Clock Settings                                               ; Off                ;      ;    ;             ;
; Analyze latches as synchronous elements                             ; On                 ;      ;    ;             ;
; Enable Recovery/Removal analysis                                    ; Off                ;      ;    ;             ;
; Enable Clock Latency                                                ; Off                ;      ;    ;             ;
; Use TimeQuest Timing Analyzer                                       ; Off                ;      ;    ;             ;
; Number of source nodes to report per destination node               ; 10                 ;      ;    ;             ;
; Number of destination nodes to report                               ; 10                 ;      ;    ;             ;
; Number of paths to report                                           ; 200                ;      ;    ;             ;
; Report Minimum Timing Checks                                        ; Off                ;      ;    ;             ;
; Use Fast Timing Models                                              ; Off                ;      ;    ;             ;
; Report IO Paths Separately                                          ; Off                ;      ;    ;             ;
; Perform Multicorner Analysis                                        ; On                 ;      ;    ;             ;
; Reports the worst-case path for each clock domain and analysis      ; Off                ;      ;    ;             ;
; Removes common clock path pessimism (CCPP) during slack computation ; Off                ;      ;    ;             ;
; Output I/O Timing Endpoint                                          ; Near End           ;      ;    ;             ;
+---------------------------------------------------------------------+--------------------+------+----+-------------+


+------------------------------------------------------------+
; tpd                                                        ;
+-------+-------------------+-----------------+------+-------+
; Slack ; Required P2P Time ; Actual P2P Time ; From ; To    ;
+-------+-------------------+-----------------+------+-------+
; N/A   ; None              ; 10.724 ns       ; d[3] ; vp[2] ;
; N/A   ; None              ; 10.480 ns       ; d[2] ; vp[2] ;
; N/A   ; None              ; 9.504 ns        ; d[0] ; vp[0] ;
; N/A   ; None              ; 9.089 ns        ; d[3] ; vp[0] ;
; N/A   ; None              ; 8.754 ns        ; d[0] ; sq[1] ;
; N/A   ; None              ; 8.648 ns        ; d[0] ; sq[2] ;
; N/A   ; None              ; 8.557 ns        ; d[3] ; vp[1] ;
; N/A   ; None              ; 8.549 ns        ; d[0] ; p     ;
; N/A   ; None              ; 8.369 ns        ; d[3] ; sq[1] ;
; N/A   ; None              ; 8.227 ns        ; d[3] ; sq[2] ;
; N/A   ; None              ; 8.161 ns        ; d[3] ; p     ;
; N/A   ; None              ; 8.100 ns        ; d[1] ; vp[1] ;
; N/A   ; None              ; 7.982 ns        ; d[2] ; sq[2] ;
; N/A   ; None              ; 7.917 ns        ; d[2] ; p     ;
; N/A   ; None              ; 7.912 ns        ; d[1] ; sq[1] ;
; N/A   ; None              ; 7.773 ns        ; d[1] ; sq[2] ;
; N/A   ; None              ; 7.707 ns        ; d[1] ; p     ;
; N/A   ; None              ; 7.129 ns        ; d[1] ; vq[1] ;
; N/A   ; None              ; 7.117 ns        ; d[0] ; sq[0] ;
; N/A   ; None              ; 7.081 ns        ; d[0] ; vq[0] ;
; N/A   ; None              ; 6.875 ns        ; d[2] ; vq[2] ;
; N/A   ; None              ; 6.629 ns        ; d[3] ; sq[3] ;
; N/A   ; None              ; 6.589 ns        ; d[3] ; vq[3] ;
+-------+-------------------+-----------------+------+-------+


+--------------------------+
; Timing Analyzer Messages ;
+--------------------------+
Info: *******************************************************************
Info: Running Quartus II Classic Timing Analyzer
    Info: Version 8.1 Build 163 10/28/2008 SJ Full Version
    Info: Processing started: Tue Apr 18 23:40:21 2017
Info: Command: quartus_tan --read_settings_files=off --write_settings_files=off sv55_pd -c sv55_pd --timing_analysis_only
Info: Parallel compilation is enabled and will use 2 of the 2 processors detected
Info: Longest tpd from source pin "d[3]" to destination pin "vp[2]" is 10.724 ns
    Info: 1: + IC(0.000 ns) + CELL(0.820 ns) = 0.820 ns; Loc. = PIN_P21; Fanout = 8; PIN Node = 'd[3]'
    Info: 2: + IC(4.489 ns) + CELL(0.366 ns) = 5.675 ns; Loc. = LCCOMB_X9_Y3_N8; Fanout = 1; COMB Node = 'v55_pd:inst1|p[2]'
    Info: 3: + IC(3.067 ns) + CELL(1.982 ns) = 10.724 ns; Loc. = PIN_A7; Fanout = 0; PIN Node = 'vp[2]'
    Info: Total cell delay = 3.168 ns ( 29.54 % )
    Info: Total interconnect delay = 7.556 ns ( 70.46 % )
Info: Parallel compilation was enabled but no parallel operations were performed
Info: Quartus II Classic Timing Analyzer was successful. 0 errors, 0 warnings
    Info: Peak virtual memory: 253 megabytes
    Info: Processing ended: Tue Apr 18 23:40:32 2017
    Info: Elapsed time: 00:00:11
    Info: Total CPU time (on all processors): 00:00:01


