/*
WARNING: Do NOT edit the input and output ports in this file in a text
editor if you plan to continue editing the block that represents it in
the Block Editor! File corruption is VERY likely to occur.
*/
/*
Copyright (C) 1991-2008 Altera Corporation
Your use of Altera Corporation's design tools, logic functions 
and other software and tools, and its AMPP partner logic 
functions, and any output files from any of the foregoing 
(including device programming or simulation files), and any 
associated documentation or information are expressly subject 
to the terms and conditions of the Altera Program License 
Subscription Agreement, Altera MegaCore Function License 
Agreement, or other applicable license agreement, including, 
without limitation, that your use is for the sole purpose of 
programming logic devices manufactured by Altera and sold by 
Altera or its authorized distributors.  Please refer to the 
applicable agreement for further details.
*/
//#pragma file_not_in_maxplusii_format
(header "graphic" (version "1.3"))
(pin
	(input)
	(rect -8 104 160 120)
	(text "INPUT" (rect 133 0 161 10)(font "Arial" (font_size 6)))
	(text "d[3..0]" (rect 5 0 36 12)(font "Arial" ))
	(pt 168 8)
	(drawing
		(line (pt 92 12)(pt 117 12)(line_width 1))
		(line (pt 92 4)(pt 117 4)(line_width 1))
		(line (pt 121 8)(pt 168 8)(line_width 1))
		(line (pt 92 12)(pt 92 4)(line_width 1))
		(line (pt 117 4)(pt 121 8)(line_width 1))
		(line (pt 117 12)(pt 121 8)(line_width 1))
	)
	(text "VCC" (rect 136 7 156 17)(font "Arial" (font_size 6)))
)
(pin
	(output)
	(rect 488 104 664 120)
	(text "OUTPUT" (rect 1 0 39 10)(font "Arial" (font_size 6)))
	(text "sq[3..0]" (rect 90 0 127 12)(font "Arial" ))
	(pt 0 8)
	(drawing
		(line (pt 0 8)(pt 52 8)(line_width 1))
		(line (pt 52 4)(pt 78 4)(line_width 1))
		(line (pt 52 12)(pt 78 12)(line_width 1))
		(line (pt 52 12)(pt 52 4)(line_width 1))
		(line (pt 78 4)(pt 82 8)(line_width 1))
		(line (pt 82 8)(pt 78 12)(line_width 1))
		(line (pt 78 12)(pt 82 8)(line_width 1))
	)
)
(pin
	(output)
	(rect 488 216 664 232)
	(text "OUTPUT" (rect 1 0 39 10)(font "Arial" (font_size 6)))
	(text "vq[3..0]" (rect 90 0 128 12)(font "Arial" ))
	(pt 0 8)
	(drawing
		(line (pt 0 8)(pt 52 8)(line_width 1))
		(line (pt 52 4)(pt 78 4)(line_width 1))
		(line (pt 52 12)(pt 78 12)(line_width 1))
		(line (pt 52 12)(pt 52 4)(line_width 1))
		(line (pt 78 4)(pt 82 8)(line_width 1))
		(line (pt 82 8)(pt 78 12)(line_width 1))
		(line (pt 78 12)(pt 82 8)(line_width 1))
	)
)
(pin
	(output)
	(rect 488 232 664 248)
	(text "OUTPUT" (rect 1 0 39 10)(font "Arial" (font_size 6)))
	(text "vp[2..0]" (rect 90 0 128 12)(font "Arial" ))
	(pt 0 8)
	(drawing
		(line (pt 0 8)(pt 52 8)(line_width 1))
		(line (pt 52 4)(pt 78 4)(line_width 1))
		(line (pt 52 12)(pt 78 12)(line_width 1))
		(line (pt 52 12)(pt 52 4)(line_width 1))
		(line (pt 78 4)(pt 82 8)(line_width 1))
		(line (pt 82 8)(pt 78 12)(line_width 1))
		(line (pt 78 12)(pt 82 8)(line_width 1))
	)
)
(pin
	(output)
	(rect 488 120 664 136)
	(text "OUTPUT" (rect 1 0 39 10)(font "Arial" (font_size 6)))
	(text "p" (rect 90 0 95 12)(font "Arial" ))
	(pt 0 8)
	(drawing
		(line (pt 0 8)(pt 52 8)(line_width 1))
		(line (pt 52 4)(pt 78 4)(line_width 1))
		(line (pt 52 12)(pt 78 12)(line_width 1))
		(line (pt 52 12)(pt 52 4)(line_width 1))
		(line (pt 78 4)(pt 82 8)(line_width 1))
		(line (pt 82 8)(pt 78 12)(line_width 1))
		(line (pt 78 12)(pt 82 8)(line_width 1))
	)
)
(symbol
	(rect 264 192 384 288)
	(text "v55_pd" (rect 5 0 41 12)(font "Arial" ))
	(text "inst1" (rect 8 80 31 92)(font "Arial" ))
	(port
		(pt 0 32)
		(input)
		(text "d[3..0]" (rect 0 0 31 12)(font "Arial" ))
		(text "d[3..0]" (rect 21 27 52 39)(font "Arial" ))
		(line (pt 0 32)(pt 16 32)(line_width 3))
	)
	(port
		(pt 120 32)
		(output)
		(text "q[3..0]" (rect 0 0 31 12)(font "Arial" ))
		(text "q[3..0]" (rect 68 27 99 39)(font "Arial" ))
		(line (pt 120 32)(pt 104 32)(line_width 3))
	)
	(port
		(pt 120 48)
		(output)
		(text "p[2..0]" (rect 0 0 31 12)(font "Arial" ))
		(text "p[2..0]" (rect 68 43 99 55)(font "Arial" ))
		(line (pt 120 48)(pt 104 48)(line_width 3))
	)
	(drawing
		(rectangle (rect 16 16 104 80)(line_width 1))
	)
)
(symbol
	(rect 256 80 384 176)
	(text "s55_pd" (rect 5 0 47 14)(font "Arial" (font_size 8)))
	(text "inst" (rect 8 80 25 92)(font "Arial" ))
	(port
		(pt 0 32)
		(input)
		(text "d[3..0]" (rect 0 0 35 14)(font "Arial" (font_size 8)))
		(text "d[3..0]" (rect 21 27 56 41)(font "Arial" (font_size 8)))
		(line (pt 0 32)(pt 16 32)(line_width 3))
	)
	(port
		(pt 128 32)
		(output)
		(text "q[3..0]" (rect 0 0 35 14)(font "Arial" (font_size 8)))
		(text "q[3..0]" (rect 72 27 107 41)(font "Arial" (font_size 8)))
		(line (pt 128 32)(pt 112 32)(line_width 3))
	)
	(port
		(pt 128 48)
		(output)
		(text "p" (rect 0 0 7 14)(font "Arial" (font_size 8)))
		(text "p" (rect 100 43 107 57)(font "Arial" (font_size 8)))
		(line (pt 128 48)(pt 112 48)(line_width 1))
	)
	(drawing
		(rectangle (rect 16 16 112 80)(line_width 1))
	)
)
(connector
	(pt 216 112)
	(pt 216 224)
	(bus)
)
(connector
	(pt 216 224)
	(pt 264 224)
	(bus)
)
(connector
	(pt 256 112)
	(pt 216 112)
	(bus)
)
(connector
	(pt 216 112)
	(pt 160 112)
	(bus)
)
(connector
	(pt 488 112)
	(pt 384 112)
	(bus)
)
(connector
	(pt 488 128)
	(pt 384 128)
	(bus)
)
(connector
	(pt 488 224)
	(pt 384 224)
	(bus)
)
(connector
	(pt 488 240)
	(pt 384 240)
	(bus)
)
(junction (pt 216 112))
