Classic Timing Analyzer report for v53_4sum
Wed Mar 29 17:29:16 2017
Quartus II Version 8.1 Build 163 10/28/2008 SJ Web Edition


---------------------
; Table of Contents ;
---------------------
  1. Legal Notice
  2. Timing Analyzer Summary
  3. Timing Analyzer Settings
  4. tpd
  5. Timing Analyzer Messages



----------------
; Legal Notice ;
----------------
Copyright (C) 1991-2008 Altera Corporation
Your use of Altera Corporation's design tools, logic functions 
and other software and tools, and its AMPP partner logic 
functions, and any output files from any of the foregoing 
(including device programming or simulation files), and any 
associated documentation or information are expressly subject 
to the terms and conditions of the Altera Program License 
Subscription Agreement, Altera MegaCore Function License 
Agreement, or other applicable license agreement, including, 
without limitation, that your use is for the sole purpose of 
programming logic devices manufactured by Altera and sold by 
Altera or its authorized distributors.  Please refer to the 
applicable agreement for further details.



+-------------------------------------------------------------------------------------------------------------------------+
; Timing Analyzer Summary                                                                                                 ;
+------------------------------+-------+---------------+-------------+------+------+------------+----------+--------------+
; Type                         ; Slack ; Required Time ; Actual Time ; From ; To   ; From Clock ; To Clock ; Failed Paths ;
+------------------------------+-------+---------------+-------------+------+------+------------+----------+--------------+
; Worst-case tpd               ; N/A   ; None          ; 10.216 ns   ; a[0] ; s[3] ; --         ; --       ; 0            ;
; Total number of failed paths ;       ;               ;             ;      ;      ;            ;          ; 0            ;
+------------------------------+-------+---------------+-------------+------+------+------------+----------+--------------+


+--------------------------------------------------------------------------------------------------------------------+
; Timing Analyzer Settings                                                                                           ;
+---------------------------------------------------------------------+--------------------+------+----+-------------+
; Option                                                              ; Setting            ; From ; To ; Entity Name ;
+---------------------------------------------------------------------+--------------------+------+----+-------------+
; Device Name                                                         ; EP2S15F484C3       ;      ;    ;             ;
; Timing Models                                                       ; Final              ;      ;    ;             ;
; Default hold multicycle                                             ; Same as Multicycle ;      ;    ;             ;
; Cut paths between unrelated clock domains                           ; On                 ;      ;    ;             ;
; Cut off read during write signal paths                              ; On                 ;      ;    ;             ;
; Cut off feedback from I/O pins                                      ; On                 ;      ;    ;             ;
; Report Combined Fast/Slow Timing                                    ; Off                ;      ;    ;             ;
; Ignore Clock Settings                                               ; Off                ;      ;    ;             ;
; Analyze latches as synchronous elements                             ; On                 ;      ;    ;             ;
; Enable Recovery/Removal analysis                                    ; Off                ;      ;    ;             ;
; Enable Clock Latency                                                ; Off                ;      ;    ;             ;
; Use TimeQuest Timing Analyzer                                       ; Off                ;      ;    ;             ;
; Number of source nodes to report per destination node               ; 10                 ;      ;    ;             ;
; Number of destination nodes to report                               ; 10                 ;      ;    ;             ;
; Number of paths to report                                           ; 200                ;      ;    ;             ;
; Report Minimum Timing Checks                                        ; Off                ;      ;    ;             ;
; Use Fast Timing Models                                              ; Off                ;      ;    ;             ;
; Report IO Paths Separately                                          ; Off                ;      ;    ;             ;
; Perform Multicorner Analysis                                        ; On                 ;      ;    ;             ;
; Reports the worst-case path for each clock domain and analysis      ; Off                ;      ;    ;             ;
; Removes common clock path pessimism (CCPP) during slack computation ; Off                ;      ;    ;             ;
; Output I/O Timing Endpoint                                          ; Near End           ;      ;    ;             ;
+---------------------------------------------------------------------+--------------------+------+----+-------------+


+-----------------------------------------------------------+
; tpd                                                       ;
+-------+-------------------+-----------------+------+------+
; Slack ; Required P2P Time ; Actual P2P Time ; From ; To   ;
+-------+-------------------+-----------------+------+------+
; N/A   ; None              ; 10.216 ns       ; a[0] ; s[3] ;
; N/A   ; None              ; 9.908 ns        ; b[0] ; s[3] ;
; N/A   ; None              ; 9.811 ns        ; b[1] ; s[3] ;
; N/A   ; None              ; 9.790 ns        ; a[0] ; s[0] ;
; N/A   ; None              ; 9.760 ns        ; a[1] ; s[3] ;
; N/A   ; None              ; 9.632 ns        ; b[2] ; s[3] ;
; N/A   ; None              ; 9.475 ns        ; b[0] ; s[0] ;
; N/A   ; None              ; 9.442 ns        ; a[0] ; s[2] ;
; N/A   ; None              ; 9.389 ns        ; a[3] ; s[3] ;
; N/A   ; None              ; 9.357 ns        ; a[0] ; p    ;
; N/A   ; None              ; 9.305 ns        ; a[2] ; s[3] ;
; N/A   ; None              ; 9.233 ns        ; a[0] ; s[1] ;
; N/A   ; None              ; 9.163 ns        ; b[3] ; s[3] ;
; N/A   ; None              ; 9.134 ns        ; b[0] ; s[2] ;
; N/A   ; None              ; 9.049 ns        ; b[0] ; p    ;
; N/A   ; None              ; 9.037 ns        ; b[1] ; s[2] ;
; N/A   ; None              ; 8.986 ns        ; a[1] ; s[2] ;
; N/A   ; None              ; 8.952 ns        ; b[1] ; p    ;
; N/A   ; None              ; 8.925 ns        ; b[0] ; s[1] ;
; N/A   ; None              ; 8.901 ns        ; a[1] ; p    ;
; N/A   ; None              ; 8.823 ns        ; b[2] ; s[2] ;
; N/A   ; None              ; 8.812 ns        ; b[1] ; s[1] ;
; N/A   ; None              ; 8.773 ns        ; b[2] ; p    ;
; N/A   ; None              ; 8.755 ns        ; a[1] ; s[1] ;
; N/A   ; None              ; 8.565 ns        ; a[3] ; p    ;
; N/A   ; None              ; 8.517 ns        ; a[2] ; s[2] ;
; N/A   ; None              ; 8.446 ns        ; a[2] ; p    ;
; N/A   ; None              ; 8.332 ns        ; b[3] ; p    ;
+-------+-------------------+-----------------+------+------+


+--------------------------+
; Timing Analyzer Messages ;
+--------------------------+
Info: *******************************************************************
Info: Running Quartus II Classic Timing Analyzer
    Info: Version 8.1 Build 163 10/28/2008 SJ Web Edition
    Info: Processing started: Wed Mar 29 17:29:12 2017
Info: Command: quartus_tan --read_settings_files=off --write_settings_files=off v53_4sum -c v53_4sum --timing_analysis_only
Info: Longest tpd from source pin "a[0]" to destination pin "s[3]" is 10.216 ns
    Info: 1: + IC(0.000 ns) + CELL(0.810 ns) = 0.810 ns; Loc. = PIN_T6; Fanout = 2; PIN Node = 'a[0]'
    Info: 2: + IC(4.938 ns) + CELL(0.309 ns) = 6.057 ns; Loc. = LCCOMB_X3_Y18_N16; Fanout = 2; COMB Node = 'Add0~24'
    Info: 3: + IC(0.000 ns) + CELL(0.035 ns) = 6.092 ns; Loc. = LCCOMB_X3_Y18_N18; Fanout = 2; COMB Node = 'Add0~28'
    Info: 4: + IC(0.000 ns) + CELL(0.035 ns) = 6.127 ns; Loc. = LCCOMB_X3_Y18_N20; Fanout = 2; COMB Node = 'Add0~32'
    Info: 5: + IC(0.000 ns) + CELL(0.125 ns) = 6.252 ns; Loc. = LCCOMB_X3_Y18_N22; Fanout = 1; COMB Node = 'Add0~35'
    Info: 6: + IC(2.002 ns) + CELL(1.962 ns) = 10.216 ns; Loc. = PIN_W15; Fanout = 0; PIN Node = 's[3]'
    Info: Total cell delay = 3.276 ns ( 32.07 % )
    Info: Total interconnect delay = 6.940 ns ( 67.93 % )
Info: Quartus II Classic Timing Analyzer was successful. 0 errors, 0 warnings
    Info: Peak virtual memory: 134 megabytes
    Info: Processing ended: Wed Mar 29 17:29:17 2017
    Info: Elapsed time: 00:00:05
    Info: Total CPU time (on all processors): 00:00:02


